…
```r
cod_landings$Common_Name <- str_replace(cod_landings$Common_Name,"COD, PACIFIC", "Pacific_Cod")

cod_landings$Common_Name <- str_replace(cod_landings$Common_Name,"COD, ATLANTIC", "Atlantic_Cod")

cod_landings$Scientific_Name <- str_replace(cod_landings$Scientific_Name, "Gadus macrocephalus", "Gadus_macrocephalus")

cod_landings$Scientific_Name <- str_replace(cod_landings$Scientific_Name, "Gadus morhua", "Gadus_morhua")
cod_landings
```

```
## # A tibble: 1,196 × 10
##     Year State    Commo…¹ Pounds Metri…² US_Do…³ Fishi…⁴ Scien…⁵ Taxon…⁶ Fishi…⁷
##    <dbl> <chr>    <chr>    <dbl>   <dbl>   <dbl> <chr>   <chr>     <dbl> <chr>  
##  1  2021 ALASKA   Pacifi… 3.30e8  149870  1.17e8 Commer… Gadus_…  164711 AKFIN  
##  2  2021 CONNECT… Atlant… 2.28e3       1  5.03e3 Commer… Gadus_…  164712 ACCSP  
##  3  2021 CONNECT… Atlant… 7.92e3       4 NA      Recrea… <NA>     164712 MRIP   
##  4  2021 DELAWARE Atlant… 1.8 e1       0 NA      Recrea… <NA>     164712 MRIP   
##  5  2021 MAINE    Atlant… 1.17e3       1 NA      Recrea… <NA>     164712 MRIP   
##  6  2021 MAINE    Atlant… 4.73e4      21  1.29e5 Commer… Gadus_…  164712 ACCSP  
##  7  2021 MASSACH… Atlant… 1.20e6     545  2.62e6 Commer… Gadus_…  164712 ACCSP  
##  8  2021 MASSACH… Atlant… 3.65e5     166 NA      Recrea… <NA>     164712 MRIP   
##  9  2021 NEW HAM… Atlant… 4.63e4      21 NA      Recrea… <NA>     164712 MRIP   
## 10  2021 NEW HAM… Atlant… 4.58e4      21  1.25e5 Commer… Gadus_…  164712 ACCSP  
## # … with 1,186 more rows, and abbreviated variable names ¹​Common_Name,
## #   ²​Metric_Tons, ³​US_Dollars, ⁴​Fishing_Types, ⁵​Scientific_Name,
## #   ⁶​Taxonomic_Serial_Number, ⁷​Fishing_Companies
```
…
```r
cod_landings_total %>% 
  group_by(Total_Pounds) %>% 
count(Total_Pounds) %>% 
  arrange(desc(Total_Pounds))
```

```
## # A tibble: 72 × 2
## # Groups:   Total_Pounds [72]
##    Total_Pounds     n
##           <dbl> <int>
##  1    732343356    23
##  2    731753057    22
##  3    725544392    18
##  4    714632302    21
##  5    703590605    22
##  6    690723678    21
##  7    688693155    24
##  8    662064941    19
##  9    648218950    22
## 10    636932442    19
## # … with 62 more rows
```


```r
cod_image <- "pacific-cod.webp"
cod_landings_total %>%
  mutate(
    image = case_when(Year %in% c(1950:2021) ~ cod_image,
                      TRUE ~ cod_image)) 
```

```
## # A tibble: 1,193 × 12
## # Groups:   Year [72]
##     Year State    Commo…¹ Pounds Metri…² US_Do…³ Fishi…⁴ Scien…⁵ Taxon…⁶ Fishi…⁷
##    <dbl> <chr>    <chr>    <dbl>   <dbl>   <dbl> <chr>   <chr>     <dbl> <chr>  
##  1  2021 ALASKA   Pacifi… 3.30e8  149870  1.17e8 Commer… Gadus_…  164711 AKFIN  
##  2  2021 CONNECT… Atlant… 2.28e3       1  5.03e3 Commer… Gadus_…  164712 ACCSP  
##  3  2021 CONNECT… Atlant… 7.92e3       4 NA      Recrea… <NA>     164712 MRIP   
##  4  2021 DELAWARE Atlant… 1.8 e1       0 NA      Recrea… <NA>     164712 MRIP   
##  5  2021 MAINE    Atlant… 1.17e3       1 NA      Recrea… <NA>     164712 MRIP   
##  6  2021 MAINE    Atlant… 4.73e4      21  1.29e5 Commer… Gadus_…  164712 ACCSP  
##  7  2021 MASSACH… Atlant… 1.20e6     545  2.62e6 Commer… Gadus_…  164712 ACCSP  
##  8  2021 MASSACH… Atlant… 3.65e5     166 NA      Recrea… <NA>     164712 MRIP   
##  9  2021 NEW HAM… Atlant… 4.63e4      21 NA      Recrea… <NA>     164712 MRIP   
## 10  2021 NEW HAM… Atlant… 4.58e4      21  1.25e5 Commer… Gadus_…  164712 ACCSP  
## # … with 1,183 more rows, 2 more variables: Total_Pounds <dbl>, image <chr>,
## #   and abbreviated variable names ¹​Common_Name, ²​Metric_Tons, ³​US_Dollars,
## #   ⁴​Fishing_Types, ⁵​Scientific_Name, ⁶​Taxonomic_Serial_Number,
## #   ⁷​Fishing_Companies
```
